ES207_HW4
…
Q3.4 Construct the most appropriate 95 percent interval estimates for the mean and median annual streamflows for the Conecuh River at Brantley, Alabama (data in Appendix C2).

##  Attaching packages  tidyverse 1.3.0 

##  ggplot2 3.2.1      purrr   0.3.3
##  tibble  2.1.3      dplyr   0.8.4
##  tidyr   1.0.2      stringr 1.4.0
##  readr   1.3.1      forcats 0.4.0

##  Conflicts  tidyverse_conflicts() 
## x dplyr::filter() masks stats::filter()
## x dplyr::lag()    masks stats::lag()

## # A tibble: 22 x 2
##     Year `Flow (cfs)`
##    <dbl>        <dbl>
##  1  1941          369
##  2  1942          683
##  3  1943          923
##  4  1944         1193
##  5  1945          413
##  6  1946         1025
##  7  1947          894
##  8  1948          859
##  9  1949         1157
## 10  1950          524
## #  with 12 more rows
…
